20 10
11111111111111111111
10100000000000000001
10100000001100000001
10111000001100000001
10001000000000000001
10101000000000000001
10101111101111111111
10100000000000000001
10101000000000000001
11111111111111111111